…
Now it is time to run a parallel FP-growth algorithm to mine frequent itemsets.

model <- ml_fpgrowth(x = iris_tbl,
                     min_confidence = 0.8,
                     min_support = 0.3)

Here are the association rules:

arules <- ml_association_rules(model) %>% collect() %>% 
  rowwise() %>% mutate(antecedent = paste(unlist(antecedent), collapse = ", ")) %>%
  rowwise() %>% mutate(consequent = unlist(consequent))
arules
## # A tibble: 39 × 5
## # Rowwise: 
##    antecedent                                      conse…¹ confi…²  lift support
##    <chr>                                           <chr>     <dbl> <dbl>   <dbl>
##  1 Petal_Length = low, Petal_Width = low, Sepal_L… Specie…   1      3      0.3  
##  2 Petal_Width = medium, Petal_Length = medium     Specie…   1      3      0.313
##  3 Petal_Length = low, Species = setosa, Sepal_Le… Petal_…   1      3      0.3  
##  4 Petal_Length = medium                           Petal_…   0.870  2.51   0.313
##  5 Petal_Length = medium                           Specie…   0.889  2.67   0.32 
##  6 Sepal_Length = low                              Petal_…   0.865  2.60   0.3  
##  7 Sepal_Length = low                              Specie…   0.865  2.60   0.3  
##  8 Sepal_Length = low                              Petal_…   0.865  2.60   0.3  
##  9 Petal_Length = low, Petal_Width = low, Species… Sepal_…   0.9    2.60   0.3  
## 10 Petal_Width = high                              Specie…   0.958  2.88   0.307
## # … with 29 more rows, and abbreviated variable names ¹​consequent, ²​confidence

And here the frequent itemsets:

fitems <- ml_freq_itemsets(model) %>% collect() %>%
  rowwise() %>% mutate(items = paste(unlist(items), collapse = ", "))
fitems
## # A tibble: 28 × 2
## # Rowwise: 
##    items                                                                    freq
##    <chr>                                                                   <dbl>
##  1 Species = virginica                                                        50
##  2 Sepal_Width = medium                                                       98
##  3 Sepal_Length = medium                                                      70
##  4 Petal_Length = low                                                         50
##  5 Petal_Length = low, Petal_Width = low                                      50
##  6 Petal_Length = low, Petal_Width = low, Sepal_Length = low                  45
##  7 Petal_Length = low, Petal_Width = low, Species = setosa                    50
##  8 Petal_Length = low, Petal_Width = low, Species = setosa, Sepal_Length …    45
##  9 Petal_Length = low, Sepal_Length = low                                     45
## 10 Petal_Length = low, Species = setosa                                       50
## # … with 18 more rows
